submission_michael_coughlin/source_code/vivado_projects/minheap_verilog/minheap_verilog.sim/sim_1/behav/testbench_behav.log
Vivado Simulator 2014.2
Time resolution is 1 ps
   10: NOOP 0, cnt = 0, last = 0, q = 0
   20: PUSH 1, cnt = 1, last = 1, q = 1 0
   30: PUSH 2, cnt = 2, last = 2, q = 1 2 0
   40: PUSH 3, cnt = 3, last = 3, q = 1 2 3 0
   50: PUSH 1, cnt = 4, last = 4, q = 1 1 3 2 0
   60: PUSH 2, cnt = 5, last = 5, q = 1 1 3 2 2 x
   70: PUSH 2, cnt = 6, last = 6, q = 1 1 2 2 2 3 x
   80: PUSH 2, cnt = 6, last = 6, q = 1 1 2 2 2 3 x
   90: POP  2, cnt = 5, last = 5, q = 1 2 2 3 2 3 out: 1
  100: POP  2, cnt = 4, last = 4, q = 2 2 2 3 2 out: 1
  110: PUSH 2, cnt = 5, last = 5, q = 2 2 2 3 2 3
  120: POP  2, cnt = 4, last = 4, q = 2 2 2 3 2 out: 2
  130: POP  2, cnt = 3, last = 3, q = 2 3 2 3 out: 2
  140: NOOP 2, cnt = 3, last = 3, q = 2 3 2 3
  150: POP  2, cnt = 2, last = 2, q = 2 3 2 out: 2
  160: POP  2, cnt = 1, last = 1, q = 3 3 out: 2
  170: POP  2, cnt = 0, last = 0, q = 3 out: 3
  180: PUSH 1, cnt = 1, last = 1, q = 1 3
  190: PUSH 0, cnt = 2, last = 2, q = 0 1 2
  200: PUSH 0, cnt = 3, last = 3, q = 0 1 0 3
  210: PUSH 3, cnt = 4, last = 4, q = 0 1 0 3 2
  220: POP  3, cnt = 3, last = 3, q = 0 1 3 3 out: 0
  230: POP  3, cnt = 2, last = 2, q = 1 3 3 out: 0
  240: POP  3, cnt = 1, last = 1, q = 3 3 out: 1
  250: POP  3, cnt = 0, last = 0, q = 3 out: 3
$finish called at time : 250 ns : File "/home/michael/ecen5139_final_project/minheap_verilog/minheap_verilog.srcs/sources_1/imports/CAV_Midterm_PriorityQueue/minheap.sv" Line 104
